…
table(brfss_smart2010.x$Response)
```

    ## 
    ##      Poor      Fair      Good Very Good Excellent 
    ##      2125      2125      2125         0      2125

``` r
brfss_smart2010.x %>% filter(Year == 2002) %>%
                      group_by(Locationabbr) %>%
                      summarise(x = n()) %>%
                      filter(x >= 7)
```

    ## # A tibble: 36 × 2
    ##    Locationabbr     x
    ##    <chr>        <int>
    ##  1 AZ              10
    ##  2 CO              20
    ##  3 CT              35
    ##  4 DE              15
    ##  5 FL              35
    ##  6 GA              15
    ##  7 HI              20
    ##  8 ID              10
    ##  9 IL              15
    ## 10 IN              10
    ## # ℹ 26 more rows
…
